{
    "version": "https://jsonfeed.org/version/1",
    "title": "Realistis",
    "description": "",
    "home_page_url": "https://text.realistis.com",
    "feed_url": "https://text.realistis.com/feed.json",
    "user_comment": "",
    "icon": "https://text.realistis.com/media/website/logo-realistis-128.png",
    "author": {
        "name": "PH.M"
    },
    "items": [
        {
            "id": "https://text.realistis.com/le-bagage-the-baggage.html",
            "url": "https://text.realistis.com/le-bagage-the-baggage.html",
            "title": "Le bagage (The baggage)",
            "summary": "Alex, 12, arrives at school with his baggage. It becomes an emotional one. Based on a true story. French, 21:9&hellip;",
            "content_html": "<figure class=\"post__image\"><img loading=\"lazy\" src=\"https://text.realistis.com/media/posts/17/Affiche-puit.png\" sizes=\"(max-width: 768px) 100vw, 300px\" srcset=\"https://text.realistis.com/media/posts/17/responsive/Affiche-puit-xs.png 300w ,https://text.realistis.com/media/posts/17/responsive/Affiche-puit-sm.png 480w ,https://text.realistis.com/media/posts/17/responsive/Affiche-puit-md.png 768w ,https://text.realistis.com/media/posts/17/responsive/Affiche-puit-lg.png 1024w ,https://text.realistis.com/media/posts/17/responsive/Affiche-puit-xl.png 1360w\"  alt=\"\" width=\"1080\" height=\"1920\"></figure>\n<p>Alex, 12, arrives at school with his baggage. It becomes an emotional one. Based on a true story.</p>\n<p>French, 21:9 (2.35:1), 5 minutes 40 seconds (including credits), colors.</p>\n<p>Blending live shots and animations.</p>\n<p> </p>",
            "image": "https://text.realistis.com/media/posts/17/Affiche-puit-2.png",
            "author": {
                "name": "PH.M"
            },
            "tags": [
            ],
            "date_published": "2020-04-18T10:48:27+02:00",
            "date_modified": "2021-03-03T18:01:22+01:00"
        },
        {
            "id": "https://text.realistis.com/covid-19-tutoriel-classe-virtuelle-videoconference-gratuite.html",
            "url": "https://text.realistis.com/covid-19-tutoriel-classe-virtuelle-videoconference-gratuite.html",
            "title": "COVID-19 Classe virtuelle en vidéoconférence",
            "summary": "Dans ce contexte de confinement à cause du COVID-19 (stats), il faut pouvoir organiser des classes virtuelles et de l'accompagnement.",
            "content_html": "<p class=\"align-center\"><div class=\"post__iframe\"><iframe loading=\"lazy\" width=\"560\" height=\"315\" src=\"https://www.youtube.com/embed/0iFkgQ0flFs\" frameborder=\"0\" allow=\"accelerometer; autoplay; encrypted-media; gyroscope; picture-in-picture\" allowfullscreen=\"allowfullscreen\"></iframe></div>\n<p>Dans ce contexte de confinement à cause du COVID-19 (<a href=\"https://ncov.deepeye.tech/en\">stats</a>), il faut pouvoir organiser des classes virtuelles et de l'accompagnement. En tant que parent d'élève, je propose d'apporter mes connaissances.</p>\n<p>Il existe quelques solutions de vidéo-conférence gratuites et peu intrusives (sans inscription, sans téléchargement).</p>\n<p>La plupart ont une offre gratuite limitée :</p>\n<ul>\n<li><a href=\"https://zoom.us/\">Zoom </a>permet jusqu'à 100 participants et 40 minutes par meeting (sauf les classes K-12 aux US, ce qui nous fait une belle jambe). Et il faut que chacun qui souhaite organiser une vidéo créé un compte.</li>\n<li>Jitsi n'a pas de limitation mais dépend fortement de la charge de leurs serveurs.</li>\n</ul>\n<p>Sur Jitsi, il n'y a pas besoin de créer de compte, même pour le créateur du metting. <span style=\"font-size: inherit;\">Donc il </span><span style=\"font-size: inherit;\">pourrait </span><span style=\"font-size: inherit;\">y avoir aussi des travau</span><span style=\"font-size: inherit;\">x de groupes entre élèves par ce biais.</span></p>\n<h2>Version courte :</h2>\n<ul>\n<li>Plannifier le nom de chaque réunion de manière assez unique et le moment de la réunion</li>\n<li>Communiquer par email ou pronote, le nom de la réunion (attention les liens dans les messages pronote ne peuvent pas être cliqués par les élèves ou les parents)</li>\n<li>Aller à <a href=\"https://meet.jit.si/\">https://meet.jit.si/</a></li>\n<li>Entrer le nom de réunion</li>\n<li>Ajouter éventuellement un mot de passe (attention, certains auront des difficultés, voir plus bas)</li>\n</ul>\n<h2>Version détaillée :</h2>\n<p>Je vous propose de tester Jitsi et en même temps de préparer une vidéo-conférence sur n'importe quelle plateforme :</p>\n<ul>\n<li>Si possible, prenez 2 appareils (ordinateur et téléphone, ou tablette et téléphone ou ordinateur et tablette), c'est seulement pour votre préparation préalable.</li>\n<li>Téléchargez Chrome, Jitsi est fait our Chrome.</li>\n<li>Prenez des écouteurs pour l'appareil qui vous servira pour la préparation (téléphone par exemple).</li>\n<li>Ouvrez cette page sur un autre appareil pour pouvoir y revenir facilement.</li>\n</ul>\n<h3>La petite préparation préalable pour se détendre (ça va bien se passer) et s'habituer à l'outil :</h3>\n<ul>\n<li>Si possible, choisir un appareil qui a une bonne connexion Wifi, donc proche de sa box internet (ou mieux une connextion ethernet filaire). Avec la fibre, le goulet d'étranglement de sa vitesse c'est souvent le Wifi. Un cable ethernet (RJ45) peut se brancher derrière sa box vers son ordinateur et ça fonctionne sans paramètrage.</li>\n<li>Branchez sur le secteur l'ordinateur, la tablette ou le téléphone qui servira pour la réunion. Il faut qu'il ait une caméra et un micro qui fonctionnent.</li>\n<li>Il vaut mieux utiliser Chrome (ou l'app Jitsi), Firefox a un problème dès qu'on rajoute un participant en vidéo.</li>\n<li>Lancez une réunion temporaire pour se préparer (et voir à quoi on ressemblera) :<br>\n<ul>\n<li>Aller sur <a href=\"https://meet.jit.si/\">https://meet.jit.si/</a></li>\n<li>Entrer un nom de réunion temporaire assez unique mais facile à retenir, exemple \"TestReunionMPLdu17mars\", ça limite les chances de téléscoper une autre réunion.</li>\n<li>Sur téléphone ou tablette, Jitsi propose d'utiliser l'application, ça pourrait être utile mais ce n'est pas nécessaire, cliquez sur \"continuer\". A noter que l'on peut aussi rejoindre une conférence en audio seulement avec un simple téléphone en entrant le numéro 01 84 88 64 78, puis en entrant le numéro PIN de la conférence qui a été crée auparavant.</li>\n<li>\n<figure class=\"post__image\"><img loading=\"lazy\" src=\"https://text.realistis.com/media/posts/16/contandphone.jpg\" sizes=\"(max-width: 768px) 100vw, 300px\" srcset=\"https://text.realistis.com/media/posts/16/responsive/contandphone-xs.jpg 300w ,https://text.realistis.com/media/posts/16/responsive/contandphone-sm.jpg 480w ,https://text.realistis.com/media/posts/16/responsive/contandphone-md.jpg 768w ,https://text.realistis.com/media/posts/16/responsive/contandphone-lg.jpg 1024w ,https://text.realistis.com/media/posts/16/responsive/contandphone-xl.jpg 1360w\"  alt=\"\" width=\"326\" height=\"409\"></figure>\n</li>\n<li>Le navigateur demande l'accès à la caméra et au micro, accepter pour le moment, on va affiner les choix plus tard. Il redemandera l'accès à la réunion suivante.</li>\n<li>Si on peut, avec un autre appareil, on va sur la même page pour se connecter à la même réunion temporaire en visitant <a href=\"https://meet.jit.si/\">https://meet.jit.si/</a> et en entrant son nom de réunion. \"testreunionmpldu17mars\" fonctionnera, les majuscules ne comptent pas (comme dans une adresse email).</li>\n<li>Si possible, branchez un casque dans le second appareil et le positionner sur ses oreilles.</li>\n<li>On clique sur \"Créer\" (ou \"GO\" si l'interface est en anglais)</li>\n<li><img loading=\"lazy\" src=\"https://text.realistis.com/media/posts/16/creerjitsi.jpg\" sizes=\"(max-width: 768px) 100vw, 300px\" srcset=\"https://text.realistis.com/media/posts/16/responsive/creerjitsi-xs.jpg 300w ,https://text.realistis.com/media/posts/16/responsive/creerjitsi-sm.jpg 480w ,https://text.realistis.com/media/posts/16/responsive/creerjitsi-md.jpg 768w ,https://text.realistis.com/media/posts/16/responsive/creerjitsi-lg.jpg 1024w ,https://text.realistis.com/media/posts/16/responsive/creerjitsi-xl.jpg 1360w\"  alt=\"\" width=\"1046\" height=\"522\"></li>\n<li>Il faut couper le micro de l'appareil qui vient de rejoindre la réunion en appuyant sur le bouton micro à gauche du bouton rouge central et baisser le volume en utilisant les boutons sur le côté de son téléphone si on n'a pas d'écouteurs.</li>\n<li>\n<figure class=\"post__image\"><img loading=\"lazy\" src=\"https://text.realistis.com/media/posts/16/son.jpg\" sizes=\"(max-width: 768px) 100vw, 300px\" srcset=\"https://text.realistis.com/media/posts/16/responsive/son-xs.jpg 300w ,https://text.realistis.com/media/posts/16/responsive/son-sm.jpg 480w ,https://text.realistis.com/media/posts/16/responsive/son-md.jpg 768w ,https://text.realistis.com/media/posts/16/responsive/son-lg.jpg 1024w ,https://text.realistis.com/media/posts/16/responsive/son-xl.jpg 1360w\"  alt=\"\" width=\"285\" height=\"505\"></figure>\n</li>\n<li>Il se peut que la caméra et surtout le micro par défaut de l'appareil \"hôte\" ne soit pas le bon ou que le volume soit trop faible. On peut changer la caméra et le micro en cliquant sur les 3 points, puis Paramètres (settings).</li>\n<li>\n<figure class=\"post__image\"><img loading=\"lazy\" src=\"https://text.realistis.com/media/posts/16/jitsi-settings.jpg\" sizes=\"(max-width: 768px) 100vw, 300px\" srcset=\"https://text.realistis.com/media/posts/16/responsive/jitsi-settings-xs.jpg 300w ,https://text.realistis.com/media/posts/16/responsive/jitsi-settings-sm.jpg 480w ,https://text.realistis.com/media/posts/16/responsive/jitsi-settings-md.jpg 768w ,https://text.realistis.com/media/posts/16/responsive/jitsi-settings-lg.jpg 1024w ,https://text.realistis.com/media/posts/16/responsive/jitsi-settings-xl.jpg 1360w\"  alt=\"\" width=\"277\" height=\"468\"></figure>\n</li>\n<li>Grâce aux écouteurs (sur vos oreilles) sur le second appareil dont le micro est coupé, vous pouvez tester le son que vos participants entendront et ajuster la position du micro principal, son volume, voire changer de micro ou en rajouter un sur l'ordinateur. Le mieux étant d'avoir un micro très proche de la bouche et de garder les mains libres.</li>\n<li>Vous notez qu'il y a une latence (un délais entre le moment où vous parlez et où vous vous entendez) pour le son puisque tout va aux serveurs Jitsi puis revient vers vous.</li>\n</ul>\n</li>\n<li>Tout en laissant la réunion temporaire continuer, vous pouvez positionner au mieux la caméra.</li>\n<li>Si possible positionner un micro proche de soi sans bruit dans la pièce.</li>\n<li>Positionner un éclairage de face et réduire les éclairages de dos ou de côtés, ou encore mieux, se mettre face à la fenêtre, mais voir l'écran avec la luminosité naturelle peut être difficile.</li>\n<li>Une fois que tout est bon, on note mentalement les positions de son appareil, son micro, l'éclairage. A noter que l'éclairage naturel peut changer d'ici la réunion (la terre continue de tourner :) ).</li>\n</ul>\n<h3>Pour la vraie réunion avec les participants :</h3>\n<ul>\n<li>On définit un nom de réunion, sans espace et sans accent, car \"testderéunion\" n'est pas la même rencontre que \"testdereunion\", par contres les capitales ne sont pas génantes \"testdereunion\" et \"TestDeReunion\" sont des noms de la même rencontre. On peut aussi définir un mot de passe (attention, voir plus bas)</li>\n<li>On teste le nom de sa conférence  sur <a href=\"https://meet.jit.si/\">https://meet.jit.si/</a> et on note le PIN.</li>\n<li>On envoi le nom et l'heure de rencontre, le numéro de téléphone et le PIN aux participants.</li>\n<li>Au moins 10 minutes avant la réunion, on positionne son appareil, micro et éclairage et on créé sa réunion (voir plus tôt pour ne pas se faire \"voler\" la réunion) :\n<ul>\n<li>On va sur <a href=\"https://meet.jit.si/\">https://meet.jit.si/</a></li>\n<li>On entre le nom de la réunion définit</li>\n<li>On peut rajouter un mot de passe si on l'a communiqué (mais les participants avec un téléphone ou une tablette peuvent avoir des difficultés, et la connexion par téléphone est impossible)\n<figure class=\"post__image\"><img loading=\"lazy\" src=\"https://text.realistis.com/media/posts/16/passjitisi.jpg\" sizes=\"(max-width: 768px) 100vw, 300px\" srcset=\"https://text.realistis.com/media/posts/16/responsive/passjitisi-xs.jpg 300w ,https://text.realistis.com/media/posts/16/responsive/passjitisi-sm.jpg 480w ,https://text.realistis.com/media/posts/16/responsive/passjitisi-md.jpg 768w ,https://text.realistis.com/media/posts/16/responsive/passjitisi-lg.jpg 1024w ,https://text.realistis.com/media/posts/16/responsive/passjitisi-xl.jpg 1360w\"  alt=\"\" width=\"462\" height=\"233\"></figure>\n</li>\n</ul>\n</li>\n</ul>\n<p>Un mot de passe est sensible à la casse (majuscules différent de minuscules), or la plupart des claviers Android et iOS commencent la saisie d'une phrase par une majuscule, donc un participant pourrait entrer un mot de passe avec une majuscule sans faire attention, ni même pouvoir voir le mot de passe entré.</p>\n<p>Donc si vous rajoutez un mot de passe à la réunion, il vaut mieux expliquer à chacun avant qu'il faut vérifier si c'est en majuscules ou pas avant de taper.</p>\n<figure class=\"post__image\">\n<figure class=\"post__image\"><img loading=\"lazy\" src=\"https://text.realistis.com/media/posts/16/majpass.jpg\" sizes=\"(max-width: 768px) 100vw, 300px\" srcset=\"https://text.realistis.com/media/posts/16/responsive/majpass-xs.jpg 300w ,https://text.realistis.com/media/posts/16/responsive/majpass-sm.jpg 480w ,https://text.realistis.com/media/posts/16/responsive/majpass-md.jpg 768w ,https://text.realistis.com/media/posts/16/responsive/majpass-lg.jpg 1024w ,https://text.realistis.com/media/posts/16/responsive/majpass-xl.jpg 1360w\"  alt=\"\" width=\"418\" height=\"743\"></figure>\n</figure>\n<p>Vous pouvez aussi choisir un mot de passe commençant par une majuscule, auquel cas, il faut bien le préciser à ceux qui se connecteront avec une ordinateur ou un appareil dont le clavier a détecté que c'était un mot de passe, donc minuscules par défaut.</p>\n<p>Durant la classe :</p>\n<p>Quand un participant parle, il devient visible sur l'interface pour tous les participants.</p>\n<p>On peut ne donner la parole qu'à un élève en cliquant sur les trois points sur son \"carré\"  et régler le volume de chaque participant vers soi (pas entre eux) :</p>\n<figure class=\"post__image\">\n<figure class=\"post__image\"><img loading=\"lazy\" src=\"https://text.realistis.com/media/posts/16/jitsimuteallbut.png\" sizes=\"(max-width: 768px) 100vw, 300px\" srcset=\"https://text.realistis.com/media/posts/16/responsive/jitsimuteallbut-xs.png 300w ,https://text.realistis.com/media/posts/16/responsive/jitsimuteallbut-sm.png 480w ,https://text.realistis.com/media/posts/16/responsive/jitsimuteallbut-md.png 768w ,https://text.realistis.com/media/posts/16/responsive/jitsimuteallbut-lg.png 1024w ,https://text.realistis.com/media/posts/16/responsive/jitsimuteallbut-xl.png 1360w\"  alt=\"\" width=\"334\" height=\"288\"></figure>\n</figure>\n<p>On peut muter tout le monde (si besoin) :</p>\n<p><img loading=\"lazy\" src=\"https://text.realistis.com/media/posts/16/jitsimutelall.jpg\" sizes=\"(max-width: 768px) 100vw, 300px\" srcset=\"https://text.realistis.com/media/posts/16/responsive/jitsimutelall-xs.jpg 300w ,https://text.realistis.com/media/posts/16/responsive/jitsimutelall-sm.jpg 480w ,https://text.realistis.com/media/posts/16/responsive/jitsimutelall-md.jpg 768w ,https://text.realistis.com/media/posts/16/responsive/jitsimutelall-lg.jpg 1024w ,https://text.realistis.com/media/posts/16/responsive/jitsimutelall-xl.jpg 1360w\"  alt=\"\" width=\"258\" height=\"462\"></p>\n<p> Attention aux bruits de fond de chacun, il faut demander à chacun de rapprocher son micro et régler le volume du micro, ou de changer de micro dans ses paramètres si vous ne l'entendez pas.</p>\n<p>En bas à gauche :</p>\n<ol>\n<li>Un participant peut lever la main pour parler en cliquant sur la \"main\".</li>\n<li>On peut partager une fenêtre de son écran ou un onglet de Chrome en cliquant sur l'écran en bas à gauche.</li>\n<li>On peut aussi interagir avec les participants pour des questions, et leur poster des liens en ouvrant le volet de discussion.</li>\n</ol>\n<figure class=\"post__image\"><img loading=\"lazy\" src=\"https://text.realistis.com/media/posts/16/fonctionsjitsi.jpg\" sizes=\"(max-width: 768px) 100vw, 300px\" srcset=\"https://text.realistis.com/media/posts/16/responsive/fonctionsjitsi-xs.jpg 300w ,https://text.realistis.com/media/posts/16/responsive/fonctionsjitsi-sm.jpg 480w ,https://text.realistis.com/media/posts/16/responsive/fonctionsjitsi-md.jpg 768w ,https://text.realistis.com/media/posts/16/responsive/fonctionsjitsi-lg.jpg 1024w ,https://text.realistis.com/media/posts/16/responsive/fonctionsjitsi-xl.jpg 1360w\"  alt=\"\" width=\"906\" height=\"91\"></figure>\n<p> Le mieux est d'expérimenter entre profs et/ou avec des petits groupes d'élèves sages.</p>\n<p>Voilà, j'espère que vous avez réussi votre première classe virtuelle !</p>",
            "image": "https://text.realistis.com/media/posts/16/jitsi-settings.jpg",
            "author": {
                "name": "PH.M"
            },
            "tags": [
                   "video",
                   "tutorial",
                   "français"
            ],
            "date_published": "2020-03-17T11:09:15+01:00",
            "date_modified": "2020-03-21T11:23:53+01:00"
        },
        {
            "id": "https://text.realistis.com/green-studio.html",
            "url": "https://text.realistis.com/green-studio.html",
            "title": "Green Studio",
            "summary": "We set up a 180° green screen studio for static shots in the heart of the city. The main microphone&hellip;",
            "content_html": "<div style=\"width: 100%; height: 480px;\"><figure class=\"post__image post__image--center\"><img loading=\"lazy\"  style=\"height: 100%; border: 0;\" src=\"https://lh3.googleusercontent.com/bzX-foq_sdlj23kj1y3RZt3zrQzFndKMNETG2SQDc3bov5IyRECLmlUcQXdOLfW2wccBXKtTKvGqoluYRAIfBTTm0oRbSJAXu0Gz8Z0WwRvQJaKtF2My7irFMoQBM6qiJYnzClHbdg=h480\" data-is-external-image=\"true\" ></figure></div>\n<p>We set up a 180° green screen studio for static shots in the heart of the city.</p>\n<p>The main microphone is a Rode NT1A with Behringer U-phoria USB interface and Linux low latency DAW.</p>\n<p>Lighting is provided by natural light, plus two <span class=\"il\">DULUX</span> L 954, 4000 lumen, 5400 K, with a <span class=\"a-list-item\">Rated Color Rendering Index (Ra) &gt;90 (it's covering 90% of the sun light spectrum).</span></p>\n<p>It also includes a VR setup (HTC Vive), and 2 crazy guys, father and son, who installed it.</p>\n<p>Visit it in 360° using your mouse on the image:</p>\n<div class=\"post__iframe\"><iframe loading=\"lazy\" width=\"100%\" height=\"350px\" allowfullscreen=\"allowfullscreen\" src=\"https://momento360.com/e/u/04ea30ab45d44bd6bfc939b048de9926?utm_campaign=embed&amp;utm_source=other&amp;utm_medium=other&amp;heading=0&amp;pitch=0&amp;field-of-view=75\"> </iframe></div>\n<p>Green bleeding is minimized using Camera to Screen settings and profiles.</p>\n<p>Here, yellow is the enemy, you find it on most skins, keylights and also in the green screen.</p>\n<p>Here's a quick comparison of the same shot, without and with color correction:</p>\n<figure class=\"post__image\"><img loading=\"lazy\"  src=\"https://text.realistis.com/media/posts/15/green2.jpg\" sizes=\"(max-width: 768px) 100vw, 300px\" srcset=\"https://text.realistis.com/media/posts/15/responsive/green2-xs.jpg 300w ,https://text.realistis.com/media/posts/15/responsive/green2-sm.jpg 480w ,https://text.realistis.com/media/posts/15/responsive/green2-md.jpg 768w ,https://text.realistis.com/media/posts/15/responsive/green2-lg.jpg 1024w ,https://text.realistis.com/media/posts/15/responsive/green2-xl.jpg 1360w\"  alt=\"\" width=\"307\" height=\"248\"></figure> <figure class=\"post__image post__image--left\"><img loading=\"lazy\"  src=\"https://text.realistis.com/media/posts/15/green1.jpg\" sizes=\"(max-width: 768px) 100vw, 300px\" srcset=\"https://text.realistis.com/media/posts/15/responsive/green1-xs.jpg 300w ,https://text.realistis.com/media/posts/15/responsive/green1-sm.jpg 480w ,https://text.realistis.com/media/posts/15/responsive/green1-md.jpg 768w ,https://text.realistis.com/media/posts/15/responsive/green1-lg.jpg 1024w ,https://text.realistis.com/media/posts/15/responsive/green1-xl.jpg 1360w\"  alt=\"\" width=\"188\" height=\"249\"></figure>\n<p> </p>\n<p> </p>\n<p> </p>\n<p> </p>\n<p> </p>",
            "image": "https://text.realistis.com/media/posts/15/green2.jpg",
            "author": {
                "name": "PH.M"
            },
            "tags": [
                   "video",
                   "shots",
                   "movie",
                   "matchmoving",
                   "green screen",
                   "compositing",
                   "camera tracking",
                   "art",
                   "Blender"
            ],
            "date_published": "2020-03-05T15:29:13+01:00",
            "date_modified": "2020-03-05T15:39:52+01:00"
        },
        {
            "id": "https://text.realistis.com/reverse-engineer-movies.html",
            "url": "https://text.realistis.com/reverse-engineer-movies.html",
            "title": "Reverse Engineer movies",
            "summary": "You might have heard the catchy phrase: To learn about movies, watch movies This is true, and fun. But what&hellip;",
            "content_html": "<p>You might have heard the catchy phrase:</p>\n<blockquote>\n<p>To learn about movies, watch movies</p>\n</blockquote>\n<p>This is true, and fun. But what do you keep from it?</p>\n<p>Do you take notes? Did you log the sequences length? How many establishing shots with landscape scenes? Where are they in the movie? Can you compile them?</p>\n<p>We had the same problem, so we developed our own tools to chop video based on scene changes (comparing frame N+1 with frame N).</p>\n<p>It automatically cuts scenes and save it to a folder. It results in a folder full of videos, one per scene.</p>\n<p>A long feature like <em>The Lord of the Rings: The Fellowship of the Ring</em> results in 2700+ scenes:</p>\n<figure class=\"post__image\"><img loading=\"lazy\" src=\"https://text.realistis.com/media/posts/14//decoup-film.jpg\" sizes=\"(max-width: 768px) 100vw, 300px\" srcset=\"https://text.realistis.com/media/posts/14//responsive/decoup-film-xs.jpg 300w ,https://text.realistis.com/media/posts/14//responsive/decoup-film-sm.jpg 480w ,https://text.realistis.com/media/posts/14//responsive/decoup-film-md.jpg 768w ,https://text.realistis.com/media/posts/14//responsive/decoup-film-lg.jpg 1024w ,https://text.realistis.com/media/posts/14//responsive/decoup-film-xl.jpg 1360w\"  alt=\"\" width=\"1115\" height=\"859\"></figure>\n<p>Then, we manually categorize them, like the 91 landscape establishing shots, in a sub folder:</p>\n<figure class=\"post__image\"><img loading=\"lazy\" src=\"https://text.realistis.com/media/posts/14//decoup-film-paysages.jpg\" sizes=\"(max-width: 768px) 100vw, 300px\" srcset=\"https://text.realistis.com/media/posts/14//responsive/decoup-film-paysages-xs.jpg 300w ,https://text.realistis.com/media/posts/14//responsive/decoup-film-paysages-sm.jpg 480w ,https://text.realistis.com/media/posts/14//responsive/decoup-film-paysages-md.jpg 768w ,https://text.realistis.com/media/posts/14//responsive/decoup-film-paysages-lg.jpg 1024w ,https://text.realistis.com/media/posts/14//responsive/decoup-film-paysages-xl.jpg 1360w\"  alt=\"\" width=\"1111\" height=\"718\"></figure>\n<p>This is very useful when you want to focus on one aspect of a movie, like its tone, and study it deeply.</p>\n<p>We also tried with automatic cut based on audio. But with J cut, L cut and continuous music, you can't really get clean scene cuts.</p>\n<h2>Sequences</h2>\n<p>For plots and dialogue, we have a different approach:</p>\n<p>First, get the script, or the draft of the movie.</p>\n<p>Then, we use our tool to extract the first image of each scene and we insert it into a huge table.</p>\n<p>Finally, we add notes, sequences while we watch the movie and read the script at the same time, with lots of clicks on the pause button.</p>\n<p>You'll certainly note that script is different from the final cut and dialogues are also different, roughly 50% for a \"stick to the script\" Director like Alfred Hitchcock. </p>\n<p>It's the actor's giving life and natural feeling to the script. </p>\n<p>In our document, we also added each shot duration since our cut tool counts frames and add the duration in the filename. This way, we can better understand the pace of the movie and how each shot helps the rythme of the movie. A color is calculated based on the average length of a scene, green is longer (plot, relationships, background story, ...), red is shorter (action shots, hints, moves, ping-pong dialogue, ...).</p>\n<p>You get a document that roughly equals the length of the movie, 130 pages for a 120 minutes movie like <em>Vertigo</em>:</p>\n<figure class=\"post__image\"><img loading=\"lazy\" src=\"https://text.realistis.com/media/posts/14//vertigo_analysis.jpg\" sizes=\"(max-width: 768px) 100vw, 300px\" srcset=\"https://text.realistis.com/media/posts/14//responsive/vertigo_analysis-xs.jpg 300w ,https://text.realistis.com/media/posts/14//responsive/vertigo_analysis-sm.jpg 480w ,https://text.realistis.com/media/posts/14//responsive/vertigo_analysis-md.jpg 768w ,https://text.realistis.com/media/posts/14//responsive/vertigo_analysis-lg.jpg 1024w ,https://text.realistis.com/media/posts/14//responsive/vertigo_analysis-xl.jpg 1360w\"  alt=\"\" width=\"672\" height=\"960\"></figure>\n<p> In this single page, you can clearly see the speed increase of the shots and how the camera is getting further from Johnny and closer to Midge as she reacts to the situation and distills her feelings for Johnny.</p>\n<p>This table is too heavy to be hosted easily, <a href=\"media/files/FULL script vertigo.txt\">here's the full script for you</a> to build your own, and discover the hidden ending that never hit the screens.</p>",
            "image": "https://text.realistis.com/media/posts/14/decoup-film-paysages.jpg",
            "author": {
                "name": "PH.M"
            },
            "tags": [
                   "storyboard",
                   "shots",
                   "script",
                   "movie"
            ],
            "date_published": "2020-02-06T10:47:01+01:00",
            "date_modified": "2020-03-12T15:51:26+01:00"
        },
        {
            "id": "https://text.realistis.com/music-for-mood.html",
            "url": "https://text.realistis.com/music-for-mood.html",
            "title": "Music for mood",
            "summary": "Mid 2018, we published a classical play of a famous music piece in 4K: This is to introduce music creation at&hellip;",
            "content_html": "<p>Mid 2018, we published a classical play of a famous music piece in 4K:</p>\n<div class=\"post__iframe\"><iframe loading=\"lazy\" width=\"560\" height=\"315\" src=\"https://www.youtube.com/embed/M4LZVzc1AD0\" frameborder=\"0\" allow=\"accelerometer; autoplay; encrypted-media; gyroscope; picture-in-picture\" allowfullscreen=\"allowfullscreen\"></iframe></div>\n<p>This is to introduce music creation at Realistis.</p>\n<p>Music is a delicate subject when you have a good ear but can't play.</p>\n<p>There's only one instrument I can play and create music with, nobody knows it, it's a virtual T<a href=\"https://en.wikipedia.org/wiki/Tonnetz\">onnetz</a> I built using keyboard + MIDI drivers. </p>\n<p>The Tonnetz originally is based on Euler's work on tonal space in 1739.</p>\n<p>The good news is, it relies on harmonic from the European classical music, exactly what fits the modern-medieval Realistis world.</p>\n<p>For the rythme, I wanted something natural and not associated to war like drums, so I went with heart beats.</p>\n<p>These melodies stick to the brain .. and loops pretty well.</p>\n<p>So the scores will be selected based on mathematical european music!</p>\n<p>To give you a quick overview of a virtual Tonnetz and something I composed using it (only the bass line is visible):</p>\n<div class=\"post__iframe\"><iframe loading=\"lazy\" width=\"560\" height=\"315\" src=\"https://www.youtube.com/embed/MQUAUJua_7U\" frameborder=\"0\" allow=\"accelerometer; autoplay; encrypted-media; gyroscope; picture-in-picture\" allowfullscreen=\"allowfullscreen\"></iframe></div>\n<p> </p>",
            "image": "https://text.realistis.com/media/posts/12/music.jpg",
            "author": {
                "name": "PH.M"
            },
            "tags": [
                   "music",
                   "art"
            ],
            "date_published": "2020-02-04T17:03:18+01:00",
            "date_modified": "2020-03-12T15:51:48+01:00"
        },
        {
            "id": "https://text.realistis.com/play-your-script.html",
            "url": "https://text.realistis.com/play-your-script.html",
            "title": "Play your script",
            "summary": "Usually, the writer writes, the actor plays. In this quick tutorial made in mid 2019, I show how you could&hellip;",
            "content_html": "<p>Usually, the writer writes, the actor plays.</p>\n<p>In this quick tutorial made in mid 2019, I show how you could play while writing your script</p>\n<div class=\"post__iframe\"><iframe loading=\"lazy\" width=\"560\" height=\"315\" src=\"https://www.youtube.com/embed/wOLnvy8ZVrI?t=400\" frameborder=\"0\" allow=\"accelerometer; autoplay; encrypted-media; gyroscope; picture-in-picture\" allowfullscreen=\"allowfullscreen\"></iframe></div>\n<p>We can't embed youtube at a time position. Jump at 6:40 to see the result.</p>\n<p> </p>\n<p class=\"align-center\"><a href=\"https://patreon.com/realistis\" class=\"btn btn-danger btn-block\" target=\"_blank\" rel=\"noopener noreferrer\"><i class=\"icon-facetime-video icon-white\"></i>Support us on Patreon</a></p>",
            "image": "https://text.realistis.com/media/posts/11/voicetyping.jpg",
            "author": {
                "name": "PH.M"
            },
            "tags": [
                   "writing",
                   "tutorial",
                   "script"
            ],
            "date_published": "2020-02-04T16:14:51+01:00",
            "date_modified": "2020-03-12T15:52:01+01:00"
        },
        {
            "id": "https://text.realistis.com/realistis-world.html",
            "url": "https://text.realistis.com/realistis-world.html",
            "title": "Realistis World",
            "summary": "Logline: Alex, a young candide wakes up every day without memories on a medieval but futuristic planet where the vast&hellip;",
            "content_html": "<figure class=\"post__image\">Logline: Alex, a young candide wakes up every day without memories on a medieval but futuristic planet where the vast majority of the characters match to personality traits in Alex's real life. They influence Alex in 70 adventures that last one day . <span style=\"font-weight: 400;\">Gedefposini helps Alex to understand this world and change for good.</span></figure>\n<p><span style=\"font-weight: 400;\">“Candide” meets “The Simpsons” meets “The lord of the rings” meets \"Dora the explorer”</span></p>\n<p>Each A-story is 8 pages (8 minutes), in 17 moves and 3 acts. If we add B-stories, it can strech to 20+ minutes overall.</p>\n<p>A classic structure is followed:</p>\n<ul>\n<li><span style=\"font-weight: 400;\">Act 1 : Situation, conflict, personal problem to solve</span></li>\n<li><span style=\"font-weight: 400;\">Act 2 : Solving actions, problem get worse, dilemma</span></li>\n<li><span style=\"font-weight: 400;\">Act 3: Breaking habit, decision, resolution, epilogue</span></li>\n</ul>\n<figure class=\"post__image\"><img loading=\"lazy\" src=\"https://text.realistis.com/media/posts/10//planet_screenshot.png\" sizes=\"(max-width: 768px) 100vw, 300px\" srcset=\"https://text.realistis.com/media/posts/10//responsive/planet_screenshot-xs.png 300w ,https://text.realistis.com/media/posts/10//responsive/planet_screenshot-sm.png 480w ,https://text.realistis.com/media/posts/10//responsive/planet_screenshot-md.png 768w ,https://text.realistis.com/media/posts/10//responsive/planet_screenshot-lg.png 1024w ,https://text.realistis.com/media/posts/10//responsive/planet_screenshot-xl.png 1360w\"  alt=\"\" width=\"1114\" height=\"854\"></figure>\n<p>Here's a view of the small planet.</p>\n<p>As you can see on the image above, diameter (Z dimension) from pole to pole is 241km (150 mi) with very high mountains, various climates, from a frozen lake to tropical coasts. It is built using true scale to keep planet curvature making coast, mountains and cities to appear while you travel.</p>\n<figure class=\"post__image\"><img loading=\"lazy\" src=\"https://text.realistis.com/media/posts/10/viewfromplanet.jpg\" sizes=\"(max-width: 768px) 100vw, 300px\" srcset=\"https://text.realistis.com/media/posts/10/responsive/viewfromplanet-xs.jpg 300w ,https://text.realistis.com/media/posts/10/responsive/viewfromplanet-sm.jpg 480w ,https://text.realistis.com/media/posts/10/responsive/viewfromplanet-md.jpg 768w ,https://text.realistis.com/media/posts/10/responsive/viewfromplanet-lg.jpg 1024w ,https://text.realistis.com/media/posts/10/responsive/viewfromplanet-xl.jpg 1360w\"  alt=\"\" width=\"1276\" height=\"738\"></figure>\n<p>It will be a gigantic (virtual) cinema studio of 368x184km (228x114 mi) that will include multiple cities, villages, ports, boats, props, roads and paths to help build stories around characters within 5 tribes, in the first season.</p>\n<h2>Why (not) building a planet?</h2>\n<h4><code>Short story: Characters, Challenge, Stories</code>.</h4>\n<p>Realistis' goal is to help people change their habits for good through entertainment in a kind environment.</p>\n<p><a href=\"https://www.elitedaily.com/life/motivation/need-stop-bad-habit-need-66-days/784244\">According to scientists</a>, to change a habit, you need to change your habit (ah!) ... every day ... for 66+ days in a stable and repetitive environment.</p>\n<p>We decided to go for 70 days (10 or 14 weeks), with 70 stories on the planet, one story each day.</p>\n<p>You add your own challenges and achieve them every day to finish watching the episode, your habits change.</p>\n<p>We also propose a simple challenge of kindness per day to help you and bring creativity if you can't achieve your challenge or if you don't have any. We currently provide 200+ challenges and welcome others.</p>\n<p>You'll enjoy sharing with the characters with specific personality traits. These are actors and also personalities you'll interact with.</p>\n<p>Since challenges are achieved locally and we all might need support sometimes, we're also thinking of local support groups.</p>\n<p>In these future local support groups, you will be able to meet in person with others.</p>\n<p>The first rules of theses groups are:</p>\n<blockquote>\n<p><span style=\"font-weight: 400;\">We need changes in our lives.</span></p>\n<p><span style=\"font-weight: 400;\">Important changes are for love.</span></p>\n</blockquote>\n<p>These groups build the global Realistis community.</p>\n<p>Kindness love is the centerpiece because we believe kindness helps you change and we need more love in this world.</p>\n<figure class=\"post__image\"><img loading=\"lazy\" src=\"https://text.realistis.com/media/posts/10/planet-size.jpg\" sizes=\"(max-width: 768px) 100vw, 300px\" srcset=\"https://text.realistis.com/media/posts/10/responsive/planet-size-xs.jpg 300w ,https://text.realistis.com/media/posts/10/responsive/planet-size-sm.jpg 480w ,https://text.realistis.com/media/posts/10/responsive/planet-size-md.jpg 768w ,https://text.realistis.com/media/posts/10/responsive/planet-size-lg.jpg 1024w ,https://text.realistis.com/media/posts/10/responsive/planet-size-xl.jpg 1360w\"  alt=\"\" width=\"979\" height=\"740\"></figure>\n<blockquote>\n<p>Realistis, an adventure to change yourself</p>\n<p>A series of daily adventures and challenges to meet yourself and others</p>\n</blockquote>\n<p> </p>",
            "image": "https://text.realistis.com/media/posts/10/planet_screenshot.png",
            "author": {
                "name": "PH.M"
            },
            "tags": [
                   "world",
                   "story",
                   "series",
                   "personalities",
                   "movie",
                   "interactive",
                   "characters",
                   "challenges",
                   "animation",
                   "RPG"
            ],
            "date_published": "2020-02-04T14:52:34+01:00",
            "date_modified": "2020-03-21T14:41:28+01:00"
        },
        {
            "id": "https://text.realistis.com/machine-a-proust-ie-proust-machine-ai.html",
            "url": "https://text.realistis.com/machine-a-proust-ie-proust-machine-ai.html",
            "title": "Machine à Proust, i.e. Proust machine (AI)",
            "summary": "We live in a time when a machine can learn from books. Realistis' Artificial Intelligence's neural networks is currently learning from&hellip;",
            "content_html": "<p>We live in a time when a machine can learn from books.</p>\n<p>Realistis' Artificial Intelligence's neural networks is currently learning from the 7 volumes of \"<i lang=\"fr\"><strong>À la recherche du temps perdu\"</strong></i> (Proust, published from 1913 to 1927).</p>\n<p>Every 1000 steps (over 116050), you can ask it what it learnt by generating some Proust like text from its global memory (more below).</p>\n<p>Proust is famous for his sentence length and his main theme: <a href=\"https://en.wikipedia.org/wiki/Involuntary_memory\" title=\"Involuntary memory\">involuntary memory</a>.</p>\n<p>100 years later, a machine applies involuntary memory to Proust's books.</p>\n<p><a href=\"http://evene.lefigaro.fr/citation/dechiffrer-eclaircir-effort-personnel-etait-clair-4942.php\">“Ce que nous n'avons pas eu à déchiffrer, à éclaircir par notre effort personnel, ce qui était clair avant nous, n'est pas à nous.”</a> Proust</p>\n<p>Today, the machine tries to decipher what Proust's words could mean.</p>\n<p>A machine can \"learn\" word by word, and character by character.</p>\n<p>The later is the most creative  one.</p>\n<p>After 1000 steps, the machine delivers a very-machine like text:</p>\n<blockquote>\n<p>MC96D[ùùù<br><br>Zù<br>äùñù[ùùKùYïü<br>^îù<br>Mù]ñùY<br>1Yùùùïî<br>ùù<br>ùùù%ùXZüùùùï*ù4ù<br>ùù3ù*9^äùç^*ü[<br>6ùùùùëùïkïX\\<br>ôPù(çùQ(<br>ùïùü/28w<br>KX]ë<br>ùùï1w<br><br>ùäX°3ñ<br>6ùX*0ë/ùYï(ù^<br>3ùK]ñ<br>ùù^%Z]ùù*<br>7<br>]2<br>Wù(üYK<br>[]ù<br>üë^^Kñùù6ù<br>U[Z<br>ñù</p>\n</blockquote>\n<p>At 2000 steps, it learned what words were but it is very creative in building them</p>\n<blockquote>\n<p>-Ext trop nouvelle d'un dîner charmant, de son brat et sont profond.<br> Il s'arrêtait nous nous fichait de cette idée et aux \"focuttes encore qu'il y eût promemer à la personne qui était dû ma chambre d</p>\n</blockquote>\n<p>After all, if \"bras\" and \"rat\" are words, why not \"brat\"?</p>\n<p>At step 4000, it improved on word building:</p>\n<blockquote>\n<p>Oh! ça qu'elle figurait de se connaître que j'avais pu l'empêcher de l'ébrouver les amies qui trouvaient d'abord en la peu de courses, non pas au moment de ce que l'arrêté et un coup d'intelligent</p>\n</blockquote>\n<p>At step 11000, it's getting clearer:</p>\n<blockquote>\n<p>jeune que les faveurs étaient au milieu de son intelligence, tant de présence pour moi, en arrivant à la grande instillance de celle-ci comme j'avais promés de tout sens du plaisir à nous aimer de fai</p>\n</blockquote>\n<p>And so on (it takes days to achieve all the 116050 steps).</p>\n<p>The most impressive is that the meaning is not always present but the style and the rythme are here.</p>\n<h2>Why</h2>\n<p>AI will be more present in the artistic process. It opens new paths for artists. Not to replace artists, but as a new brush with its technique.</p>\n<p>This example is just for text, but look at what AI can do from a photo:</p>\n<figure class=\"post__image\"><img loading=\"lazy\"  src=\"https://text.realistis.com/media/posts/9/33281_840_Ville-de-Montpellier2.jpg\" sizes=\"(max-width: 768px) 100vw, 300px\" srcset=\"https://text.realistis.com/media/posts/9/responsive/33281_840_Ville-de-Montpellier2-xs.jpg 300w ,https://text.realistis.com/media/posts/9/responsive/33281_840_Ville-de-Montpellier2-sm.jpg 480w ,https://text.realistis.com/media/posts/9/responsive/33281_840_Ville-de-Montpellier2-md.jpg 768w ,https://text.realistis.com/media/posts/9/responsive/33281_840_Ville-de-Montpellier2-lg.jpg 1024w ,https://text.realistis.com/media/posts/9/responsive/33281_840_Ville-de-Montpellier2-xl.jpg 1360w\"  alt=\"\" width=\"1920\" height=\"710\"></figure>\n<figure class=\"post__image\"><img loading=\"lazy\"  src=\"https://text.realistis.com/media/posts/9/montpellier-ancien.png\" sizes=\"(max-width: 768px) 100vw, 300px\" srcset=\"https://text.realistis.com/media/posts/9/responsive/montpellier-ancien-xs.png 300w ,https://text.realistis.com/media/posts/9/responsive/montpellier-ancien-sm.png 480w ,https://text.realistis.com/media/posts/9/responsive/montpellier-ancien-md.png 768w ,https://text.realistis.com/media/posts/9/responsive/montpellier-ancien-lg.png 1024w ,https://text.realistis.com/media/posts/9/responsive/montpellier-ancien-xl.png 1360w\"  alt=\"\" width=\"692\" height=\"256\"></figure>\n<figure class=\"post__image\"><img loading=\"lazy\" src=\"https://text.realistis.com/media/posts/9/montpellier-stripes.png\" sizes=\"(max-width: 768px) 100vw, 300px\" srcset=\"https://text.realistis.com/media/posts/9/responsive/montpellier-stripes-xs.png 300w ,https://text.realistis.com/media/posts/9/responsive/montpellier-stripes-sm.png 480w ,https://text.realistis.com/media/posts/9/responsive/montpellier-stripes-md.png 768w ,https://text.realistis.com/media/posts/9/responsive/montpellier-stripes-lg.png 1024w ,https://text.realistis.com/media/posts/9/responsive/montpellier-stripes-xl.png 1360w\"  alt=\"\" width=\"692\" height=\"256\"></figure>\n<p>You might think the second image is a photo filter, the third image was produced from the original, not from the second image.</p>\n<p>Artistic perception is a filter to reality. This \"filter\" interprets what we see through a set of free creative expressions and abilities.</p>\n<p>The image feeded to the machine is a base to express art, the same way what we call reality impresses our retina and we interpret what we partially see as lines and colors through our perception, technique and tools.</p>\n<p>Feeding the last generated result above as the original extracts the essence of the artistic perception. If you feed the machine with its own generated productions, as if it paints what it painted, you're getting more of the core artistic perception:</p>\n<figure class=\"post__image\"><img loading=\"lazy\" src=\"https://text.realistis.com/media/posts/9/montpellier-stripes-21.png\" sizes=\"(max-width: 768px) 100vw, 300px\" srcset=\"https://text.realistis.com/media/posts/9/responsive/montpellier-stripes-21-xs.png 300w ,https://text.realistis.com/media/posts/9/responsive/montpellier-stripes-21-sm.png 480w ,https://text.realistis.com/media/posts/9/responsive/montpellier-stripes-21-md.png 768w ,https://text.realistis.com/media/posts/9/responsive/montpellier-stripes-21-lg.png 1024w ,https://text.realistis.com/media/posts/9/responsive/montpellier-stripes-21-xl.png 1360w\"  alt=\"\" width=\"692\" height=\"256\"></figure>\n<p>Is it still perceived as a photo filter or is it abstract?</p>\n<p>But dimensions of \"windows\" on the right, composition and perspective is still relative to the original, nothing upside-down, or disformed. This is AI, it keeps the main structure as much as the feeded original is structured. It doesn't brake perceived rules.</p>\n<p>Human is in control for now with these AI because we're in control of what feeds them and we ask them to generate innocent productions. When we see the random creativity it expresses with data, maybe there's risk with AI manipulating sensitive data or feeding another AI producing something harmful, the same way an animal trained to hurt adults may kill a child. Ultimately, it's always human's responsibility.</p>\n<p>PS: Only the French will get the pun in the title, sorry, I couldn't resist.</p>",
            "image": "https://text.realistis.com/media/posts/9/MS_A_la_recherche_du_temps_perdu1.jpg",
            "author": {
                "name": "PH.M"
            },
            "tags": [
                   "story",
                   "learning",
                   "book",
                   "AI"
            ],
            "date_published": "2020-02-04T10:47:21+01:00",
            "date_modified": "2020-03-12T15:52:20+01:00"
        },
        {
            "id": "https://text.realistis.com/realistis-vr-app.html",
            "url": "https://text.realistis.com/realistis-vr-app.html",
            "title": "Realistis VR Apps",
            "summary": "In 2016, I created a VR app to offer anyone a place to build a business. https://www.viveport.com/apps/86cf511b-f1ef-4b89-b597-0dce9fe28893/Realistis_1/ This was the natural&hellip;",
            "content_html": "<p>In 2016, I created a VR app to offer anyone a place to build a business.</p>\n<p><a href=\"https://www.viveport.com/apps/86cf511b-f1ef-4b89-b597-0dce9fe28893/Realistis_1/\">https://www.viveport.com/apps/86cf511b-f1ef-4b89-b597-0dce9fe28893/Realistis_1/</a> </p>\n<p>This was the natural route after my position as head of Europe Digital Marketing Manager for the Expansys-Brandpath group (now Brandpath).</p>\n<p>Once you wear your VR heaset to jump into your Realistis virtual environment, you could import any 3D object you have, in OBJ format, from an Excel-like file. Each object could come with its details (name, description, price, ...) and it was displayed above each object.</p>\n<p>Since, I applied for a provisonal pantent at the USPTO, I presented our concept at the CES in Las Vegas helped by the Montpellier Business Incubator Center (BIC) and La Région Occitanie.</p>\n<p>It raised good media coverage in the French press:</p>\n<ul>\n<li><a href=\"https://www.interactions-digitales.com/realistis-invente-un-nouveau-canal-de-distribution-e-commerce-via-la-realite-virtuelle/\">https://www.interactions-digitales.com/realistis-invente-un-nouveau-canal-de-distribution-e-commerce-via-la-realite-virtuelle/</a></li>\n<li><a href=\"https://www.offremedia.com/realistis-concoit-un-nouveau-canal-de-distribution-e-commerce-la-realite-virtuelle\">https://www.offremedia.com/realistis-concoit-un-nouveau-canal-de-distribution-e-commerce-la-realite-virtuelle</a></li>\n<li><a href=\"https://www.ladn.eu/adn-business/news-business/actualites-startups/realistis-nouveau-canal-de-distribution-en-vr-au-ces/\">https://www.ladn.eu/adn-business/news-business/actualites-startups/realistis-nouveau-canal-de-distribution-en-vr-au-ces/</a></li>\n<li><a href=\"http://www.niooz.fr/ces-2017-realistis-invente-un-nouveau-canal-de-distribution-e-commerce-via-la-realite-virtuelle-ludovia-magazine-13177986.shtml\">http://www.niooz.fr/ces-2017-realistis-invente-un-nouveau-canal-de-distribution-e-commerce-via-la-realite-virtuelle-ludovia-magazine-13177986.shtml</a></li>\n<li><a href=\"http://www.industrie-mag.com/article4557.html\">http://www.industrie-mag.com/article4557.html</a></li>\n<li><a href=\"https://www.solutions-numeriques.com/la-france-en-pole-position-europeenne-au-ces-2017/\">https://www.solutions-numeriques.com/la-france-en-pole-position-europeenne-au-ces-2017/</a> </li>\n<li><a href=\"https://www.lemasmedia.fr/29-entreprises-d-occitanie-pyrenees-mediterranee-au-ces-las-vegas\">https://www.lemasmedia.fr/29-entreprises-d-occitanie-pyrenees-mediterranee-au-ces-las-vegas</a> </li>\n</ul>\n<p>I pitched at the French village at the CES:</p>\n<div class=\"post__iframe\"><iframe loading=\"lazy\" width=\"100%\" height=\"405\" frameborder=\"0\" scrolling=\"no\" src=\"http://player.vimeo.com/video/201981427\" name=\"video\"></iframe></div>\n<p><a href=\"http://www.french-village.fr/tv/7762/realistis-la-realite-virtuelle-au-service-du-e-commerce.html\">http://www.french-village.fr/tv/7762/realistis-la-realite-virtuelle-au-service-du-e-commerce.html</a> </p>\n<div class=\"post__iframe\"><iframe loading=\"lazy\" width=\"100%\" height=\"405\" frameborder=\"0\" scrolling=\"no\" src=\"https://www.youtube.com/embed/1wnn4993XZk\" name=\"video\"></iframe></div>\n<p><a href=\"http://www.village-francophone.com/tv/7710/realistis-la-realite-virtuelle-au-service-du-e-commerce.html\">http://www.village-francophone.com/tv/7710/realistis-la-realite-virtuelle-au-service-du-e-commerce.html</a> </p>\n<p>Previously, we published 16 VR mobile apps around personality traits. Each app was targeting one of the 16 personalities and we gathered valuable information about each personality and reaction to VR and apps in general.</p>\n<p><a href=\"https://twitter.com/realistis_com\">https://twitter.com/realistis_com</a> </p>\n<figure class=\"post__image\"><img loading=\"lazy\" src=\"https://text.realistis.com/media/posts/8/enfj.jpg\" sizes=\"(max-width: 768px) 100vw, 300px\" srcset=\"https://text.realistis.com/media/posts/8/responsive/enfj-xs.jpg 300w ,https://text.realistis.com/media/posts/8/responsive/enfj-sm.jpg 480w ,https://text.realistis.com/media/posts/8/responsive/enfj-md.jpg 768w ,https://text.realistis.com/media/posts/8/responsive/enfj-lg.jpg 1024w ,https://text.realistis.com/media/posts/8/responsive/enfj-xl.jpg 1360w\"  alt=\"\" width=\"300\" height=\"300\"></figure>\n<p>We offered results at a dedicated event at the CES.</p>\n<p><a href=\"https://www.meetup.com/VR-MBTI-Study-results-one-time-only-CES/\">https://www.meetup.com/VR-MBTI-Study-results-one-time-only-CES/</a> </p>\n<p>and we started local events:</p>\n<p><a href=\"https://www.meetup.com/fr-FR/realistis/\">https://www.meetup.com/fr-FR/realistis/</a></p>\n<p>VR was in its infancy, so exciting!</p>\n<figure class=\"post__image\"><img loading=\"lazy\" src=\"https://text.realistis.com/media/posts/8/vr_haut.jpg\" sizes=\"(max-width: 768px) 100vw, 300px\" srcset=\"https://text.realistis.com/media/posts/8/responsive/vr_haut-xs.jpg 300w ,https://text.realistis.com/media/posts/8/responsive/vr_haut-sm.jpg 480w ,https://text.realistis.com/media/posts/8/responsive/vr_haut-md.jpg 768w ,https://text.realistis.com/media/posts/8/responsive/vr_haut-lg.jpg 1024w ,https://text.realistis.com/media/posts/8/responsive/vr_haut-xl.jpg 1360w\"  alt=\"\" width=\"1270\" height=\"714\"></figure>\n<p>It provided good contacts and follow-ups, but the market was not ready, and to be frank, we were not ready. VR device pricing tag was too high, partners were waiting for big player moves. Well, it didn't come out, but we learned a lot in the process.</p>\n<figure class=\"post__image\"><img loading=\"lazy\" src=\"https://text.realistis.com/media/posts/8/VR_space.jpg\" sizes=\"(max-width: 768px) 100vw, 300px\" srcset=\"https://text.realistis.com/media/posts/8/responsive/VR_space-xs.jpg 300w ,https://text.realistis.com/media/posts/8/responsive/VR_space-sm.jpg 480w ,https://text.realistis.com/media/posts/8/responsive/VR_space-md.jpg 768w ,https://text.realistis.com/media/posts/8/responsive/VR_space-lg.jpg 1024w ,https://text.realistis.com/media/posts/8/responsive/VR_space-xl.jpg 1360w\"  alt=\"\" width=\"1270\" height=\"714\"></figure>\n<p>Video is on the viveport website, here's the direct link (mp4 will play into your browser):</p>\n<p><a href=\"https://assets-global.viveport.com/vr_developer_published_assets/app/86cf511b-f1ef-4b89-b597-0dce9fe28893/media/publish/video_1_v9480505151.mp4\">https://assets-global.viveport.com/vr_developer_published_assets/app/86cf511b-f1ef-4b89-b597-0dce9fe28893/media/publish/video_1_v9480505151.mp4</a></p>\n<h2>Conclusion</h2>\n<p>The main thing we understood is that you need a story, a world with a meaning.</p>\n<p>Since then, I'm working on Realistis World and stories. More in a dedicated page.</p>",
            "image": "https://text.realistis.com/media/posts/8/vr_haut.jpg",
            "author": {
                "name": "PH.M"
            },
            "tags": [
                   "video",
                   "patent",
                   "VR"
            ],
            "date_published": "2020-02-04T09:17:20+01:00",
            "date_modified": "2020-02-23T15:11:26+01:00"
        },
        {
            "id": "https://text.realistis.com/mixing-360-photos-and-3d.html",
            "url": "https://text.realistis.com/mixing-360-photos-and-3d.html",
            "title": "Mixing 360 photos and 3D",
            "summary": "Mid 2019, I wrote a tutorial on the process to add 3D objects into scenes with 360 and HDRi environments and&hellip;",
            "content_html": "<p>Mid 2019, I wrote a tutorial on the process to add 3D objects into scenes with 360 and HDRi environments and create credible animations easily:</p>\n<div class=\"post__iframe\"><iframe loading=\"lazy\" width=\"560\" height=\"315\" src=\"https://www.youtube.com/embed/1CFlJEmFJ8A\" frameborder=\"0\" allow=\"accelerometer; autoplay; encrypted-media; gyroscope; picture-in-picture\" allowfullscreen=\"allowfullscreen\"></iframe></div>\n<p> </p>",
            "image": "https://text.realistis.com/media/posts/7/360for3D.jpg",
            "author": {
                "name": "PH.M"
            },
            "tags": [
                   "photo",
                   "animation",
                   "Blender",
                   "3D",
                   "360"
            ],
            "date_published": "2020-01-30T22:53:52+01:00",
            "date_modified": "2020-03-12T15:53:47+01:00"
        }
    ]
}
